EMF Data/28cm/Newfile1.csv

X,CH1,Start,Increment,
Sequence,Volt,-3.480000e+00,5.000000e-03,
0,-4.000000e-02,
1,8.000000e-02,
2,-4.000000e-02,
3,8.000000e-02,
4,-4.000000e-02,
5,8.000000e-02,
6,1.000000e-01,
7,-6.000000e-02,
8,8.000000e-02,
9,-4.000000e-02,
10,8.000000e-02,
11,-4.000000e-02,
12,-4.000000e-02,
13,8.000000e-02,
14,-4.000000e-02,
15,1.000000e-01,
16,8.000000e-02,
17,-6.000000e-02,
18,1.000000e-01,
19,-4.000000e-02,
20,-4.000000e-02,
21,8.000000e-02,
22,-4.000000e-02,
23,1.000000e-01,
24,1.000000e-01,
25,-4.000000e-02,
26,-4.000000e-02,
27,8.000000e-02,
28,-4.000000e-02,
29,8.000000e-02,
30,-6.000000e-02,
31,1.000000e-01,
32,8.000000e-02,
33,-4.000000e-02,
34,8.000000e-02,
35,-4.000000e-02,
36,-4.000000e-02,
37,8.000000e-02,
38,-4.000000e-02,
39,8.000000e-02,
40,-4.000000e-02,
41,1.000000e-01,
42,-4.000000e-02,
43,8.000000e-02,
44,-4.000000e-02,
45,8.000000e-02,
46,1.000000e-01,
47,-4.000000e-02,
48,-4.000000e-02,
49,8.000000e-02,
50,-4.000000e-02,
51,8.000000e-02,
52,-6.000000e-02,
53,6.000000e-02,
54,-4.000000e-02,
55,1.000000e-01,
56,8.000000e-02,
57,-6.000000e-02,
58,1.000000e-01,
59,-6.000000e-02,
60,-4.000000e-02,
61,1.000000e-01,
62,8.000000e-02,
63,-6.000000e-02,
64,8.000000e-02,
65,-4.000000e-02,
66,-4.000000e-02,
67,8.000000e-02,
68,-4.000000e-02,
69,1.000000e-01,
70,-4.000000e-02,
71,8.000000e-02,
72,-6.000000e-02,
73,1.000000e-01,
74,-4.000000e-02,
75,1.000000e-01,
76,-6.000000e-02,
77,1.000000e-01,
78,-4.000000e-02,
79,8.000000e-02,
80,-4.000000e-02,
81,8.000000e-02,
82,1.000000e-01,
83,-4.000000e-02,
84,-4.000000e-02,
85,1.200000e-01,
86,1.200000e-01,
87,-4.000000e-02,
88,0.000000e+00,
89,1.400000e-01,
90,2.000000e-02,
91,1.600000e-01,
92,6.000000e-02,
93,2.400000e-01,
94,1.200000e-01,
95,3.400000e-01,
96,2.400000e-01,
97,3.600000e-01,
98,3.600000e-01,
99,1.600000e-01,
100,2.600000e-01,
101,4.000000e-02,
102,1.400000e-01,
103,-8.000000e-02,
104,0.000000e+00,
105,-2.200000e-01,
106,-1.600000e-01,
107,-3.600000e-01,
108,-3.600000e-01,
109,-2.200000e-01,
110,-3.000000e-01,
111,-1.000000e-01,
112,-2.000000e-01,
113,0.000000e+00,
114,-1.000000e-01,
115,6.000000e-02,
116,-6.000000e-02,
117,6.000000e-02,
118,-4.000000e-02,
119,8.000000e-02,
120,-4.000000e-02,
121,8.000000e-02,
122,-6.000000e-02,
123,1.000000e-01,
124,-4.000000e-02,
125,8.000000e-02,
126,-4.000000e-02,
127,8.000000e-02,
128,-4.000000e-02,
129,1.000000e-01,
130,1.000000e-01,
131,-6.000000e-02,
132,-6.000000e-02,
133,1.000000e-01,
134,-4.000000e-02,
135,1.000000e-01,
136,8.000000e-02,
137,-6.000000e-02,
138,8.000000e-02,
139,-4.000000e-02,
140,1.000000e-01,
141,-4.000000e-02,
142,-4.000000e-02,
143,8.000000e-02,
144,-4.000000e-02,
145,1.000000e-01,
146,8.000000e-02,
147,-4.000000e-02,
148,-4.000000e-02,
149,8.000000e-02,
150,-4.000000e-02,
151,1.000000e-01,
152,8.000000e-02,
153,-4.000000e-02,
154,8.000000e-02,
155,-6.000000e-02,
156,8.000000e-02,
157,-4.000000e-02,
158,-4.000000e-02,
159,8.000000e-02,
160,-4.000000e-02,
161,8.000000e-02,
162,-4.000000e-02,
163,1.000000e-01,
164,8.000000e-02,
165,-4.000000e-02,
166,-4.000000e-02,
167,1.000000e-01,
168,-4.000000e-02,
169,8.000000e-02,
170,8.000000e-02,
171,-6.000000e-02,
172,-4.000000e-02,
173,8.000000e-02,
174,-4.000000e-02,
175,8.000000e-02,
176,-4.000000e-02,
177,8.000000e-02,
178,1.000000e-01,
179,-6.000000e-02,
180,-4.000000e-02,
181,8.000000e-02,
182,-4.000000e-02,
183,8.000000e-02,
184,-4.000000e-02,
185,8.000000e-02,
186,-4.000000e-02,
187,8.000000e-02,
188,-4.000000e-02,
189,8.000000e-02,
190,-6.000000e-02,
191,8.000000e-02,
192,1.000000e-01,
193,-4.000000e-02,
194,-4.000000e-02,
195,1.000000e-01,
196,-4.000000e-02,
197,1.000000e-01,
198,-4.000000e-02,
199,1.000000e-01,
200,-4.000000e-02,
201,1.000000e-01,
202,-4.000000e-02,
203,1.000000e-01,
204,-2.000000e-02,
205,1.400000e-01,
206,2.000000e-02,
207,1.600000e-01,
208,6.000000e-02,
209,2.600000e-01,
210,1.600000e-01,
211,3.800000e-01,
212,4.000000e-01,
213,2.600000e-01,
214,3.400000e-01,
215,1.200000e-01,
216,2.600000e-01,
217,-2.000000e-02,
218,8.000000e-02,
219,-1.200000e-01,
220,-6.000000e-02,
221,-2.600000e-01,
222,-1.800000e-01,
223,-3.200000e-01,
224,-3.200000e-01,
225,-1.600000e-01,
226,-2.600000e-01,
227,-6.000000e-02,
228,-1.600000e-01,
229,2.000000e-02,
230,-1.000000e-01,
231,6.000000e-02,
232,8.000000e-02,
233,-8.000000e-02,
234,-6.000000e-02,
235,8.000000e-02,
236,-4.000000e-02,
237,8.000000e-02,
238,8.000000e-02,
239,-6.000000e-02,
240,6.000000e-02,
241,-6.000000e-02,
242,-4.000000e-02,
243,8.000000e-02,
244,8.000000e-02,
245,-4.000000e-02,
246,8.000000e-02,
247,-6.000000e-02,
248,-4.000000e-02,
249,8.000000e-02,
250,-4.000000e-02,
251,1.000000e-01,
252,1.000000e-01,
253,-4.000000e-02,
254,-4.000000e-02,
255,8.000000e-02,
256,-4.000000e-02,
257,8.000000e-02,
258,-4.000000e-02,
259,8.000000e-02,
260,-4.000000e-02,
261,1.000000e-01,
262,-4.000000e-02,
263,1.000000e-01,
264,-4.000000e-02,
265,1.000000e-01,
266,-6.000000e-02,
267,1.000000e-01,
268,8.000000e-02,
269,-4.000000e-02,
270,-4.000000e-02,
271,8.000000e-02,
272,-4.000000e-02,
273,8.000000e-02,
274,-4.000000e-02,
275,8.000000e-02,
276,-4.000000e-02,
277,8.000000e-02,
278,-4.000000e-02,
279,8.000000e-02,
280,-6.000000e-02,
281,1.000000e-01,
282,-4.000000e-02,
283,1.000000e-01,
284,-4.000000e-02,
285,1.000000e-01,
286,8.000000e-02,
287,-6.000000e-02,
288,8.000000e-02,
289,-4.000000e-02,
290,-6.000000e-02,
291,1.000000e-01,
292,8.000000e-02,
293,-4.000000e-02,
294,8.000000e-02,
295,-4.000000e-02,
296,-4.000000e-02,
297,8.000000e-02,
298,-6.000000e-02,
299,8.000000e-02,
300,-4.000000e-02,
301,8.000000e-02,
302,-4.000000e-02,
303,8.000000e-02,
304,-4.000000e-02,
305,8.000000e-02,
306,-4.000000e-02,
307,8.000000e-02,
308,-4.000000e-02,
309,8.000000e-02,
310,-4.000000e-02,
311,1.000000e-01,
312,8.000000e-02,
313,-4.000000e-02,
314,-4.000000e-02,
315,1.000000e-01,
316,-4.000000e-02,
317,1.000000e-01,
318,-4.000000e-02,
319,1.000000e-01,
320,-4.000000e-02,
321,1.200000e-01,
322,-2.000000e-02,
323,1.400000e-01,
324,2.000000e-02,
325,1.800000e-01,
326,8.000000e-02,
327,2.400000e-01,
328,1.400000e-01,
329,3.400000e-01,
330,2.400000e-01,
331,3.600000e-01,
332,3.400000e-01,
333,1.600000e-01,
334,2.200000e-01,
335,4.000000e-02,
336,1.200000e-01,
337,-1.000000e-01,
338,0.000000e+00,
339,-2.400000e-01,
340,-1.800000e-01,
341,-3.400000e-01,
342,-3.400000e-01,
343,-2.000000e-01,
344,-2.800000e-01,
345,-1.000000e-01,
346,-1.800000e-01,
347,0.000000e+00,
348,-1.000000e-01,
349,2.000000e-02,
350,4.000000e-02,
351,-8.000000e-02,
352,-6.000000e-02,
353,6.000000e-02,
354,8.000000e-02,
355,-6.000000e-02,
356,-6.000000e-02,
357,8.000000e-02,
358,-4.000000e-02,
359,1.000000e-01,
360,8.000000e-02,
361,-4.000000e-02,
362,8.000000e-02,
363,-4.000000e-02,
364,-6.000000e-02,
365,1.000000e-01,
366,-4.000000e-02,
367,1.000000e-01,
368,8.000000e-02,
369,-6.000000e-02,
370,-4.000000e-02,
371,1.000000e-01,
372,-4.000000e-02,
373,8.000000e-02,
374,8.000000e-02,
375,-4.000000e-02,
376,-4.000000e-02,
377,8.000000e-02,
378,-4.000000e-02,
379,8.000000e-02,
380,-4.000000e-02,
381,8.000000e-02,
382,8.000000e-02,
383,-6.000000e-02,
384,-4.000000e-02,
385,8.000000e-02,
386,-6.000000e-02,
387,1.000000e-01,
388,-4.000000e-02,
389,8.000000e-02,
390,8.000000e-02,
391,-4.000000e-02,
392,-4.000000e-02,
393,1.000000e-01,
394,-4.000000e-02,
395,8.000000e-02,
396,-4.000000e-02,
397,8.000000e-02,
398,-4.000000e-02,
399,1.000000e-01,
400,-4.000000e-02,
401,8.000000e-02,
402,-2.000000e-02,
403,8.000000e-02,
404,-4.000000e-02,
405,1.000000e-01,
406,8.000000e-02,
407,-4.000000e-02,
408,-6.000000e-02,
409,1.000000e-01,
410,-4.000000e-02,
411,1.000000e-01,
412,1.000000e-01,
413,-4.000000e-02,
414,-6.000000e-02,
415,1.000000e-01,
416,-4.000000e-02,
417,1.000000e-01,
418,1.000000e-01,
419,-4.000000e-02,
420,-4.000000e-02,
421,8.000000e-02,
422,-4.000000e-02,
423,8.000000e-02,
424,8.000000e-02,
425,-4.000000e-02,
426,1.000000e-01,
427,-6.000000e-02,
428,-6.000000e-02,
429,8.000000e-02,
430,-4.000000e-02,
431,1.000000e-01,
432,-4.000000e-02,
433,1.000000e-01,
434,-4.000000e-02,
435,1.000000e-01,
436,-4.000000e-02,
437,1.200000e-01,
438,0.000000e+00,
439,1.600000e-01,
440,2.000000e-02,
441,2.000000e-01,
442,1.200000e-01,
443,3.000000e-01,
444,2.000000e-01,
445,3.800000e-01,
446,4.000000e-01,
447,2.200000e-01,
448,3.200000e-01,
449,8.000000e-02,
450,1.600000e-01,
451,-4.000000e-02,
452,4.000000e-02,
453,-1.600000e-01,
454,-6.000000e-02,
455,-2.600000e-01,
456,-1.800000e-01,
457,-3.000000e-01,
458,-3.000000e-01,
459,-1.400000e-01,
460,-2.400000e-01,
461,-6.000000e-02,
462,-1.600000e-01,
463,2.000000e-02,
464,-1.000000e-01,
465,4.000000e-02,
466,-8.000000e-02,
467,6.000000e-02,
468,-6.000000e-02,
469,8.000000e-02,
470,8.000000e-02,
471,-6.000000e-02,
472,-4.000000e-02,
473,8.000000e-02,
474,-4.000000e-02,
475,1.200000e-01,
476,-4.000000e-02,
477,8.000000e-02,
478,-4.000000e-02,
479,1.000000e-01,
480,-4.000000e-02,
481,1.000000e-01,
482,-4.000000e-02,
483,8.000000e-02,
484,-4.000000e-02,
485,8.000000e-02,
486,8.000000e-02,
487,-4.000000e-02,
488,-4.000000e-02,
489,8.000000e-02,
490,8.000000e-02,
491,-4.000000e-02,
492,8.000000e-02,
493,-4.000000e-02,
494,-4.000000e-02,
495,1.200000e-01,
496,-4.000000e-02,
497,8.000000e-02,
498,-4.000000e-02,
499,8.000000e-02,
500,-6.000000e-02,
501,1.000000e-01,
502,-6.000000e-02,
503,8.000000e-02,
504,-6.000000e-02,
505,8.000000e-02,
506,-6.000000e-02,
507,1.000000e-01,
508,8.000000e-02,
509,-4.000000e-02,
510,-6.000000e-02,
511,1.000000e-01,
512,-4.000000e-02,
513,8.000000e-02,
514,8.000000e-02,
515,-6.000000e-02,
516,-4.000000e-02,
517,1.000000e-01,
518,-4.000000e-02,
519,8.000000e-02,
520,-4.000000e-02,
521,8.000000e-02,
522,-4.000000e-02,
523,1.000000e-01,
524,-4.000000e-02,
525,1.000000e-01,
526,8.000000e-02,
527,-4.000000e-02,
528,1.000000e-01,
529,-4.000000e-02,
530,1.000000e-01,
531,-6.000000e-02,
532,8.000000e-02,
533,-4.000000e-02,
534,8.000000e-02,
535,-4.000000e-02,
536,8.000000e-02,
537,-6.000000e-02,
538,-4.000000e-02,
539,1.000000e-01,
540,-6.000000e-02,
541,1.000000e-01,
542,-6.000000e-02,
543,8.000000e-02,
544,-4.000000e-02,
545,1.000000e-01,
546,-4.000000e-02,
547,8.000000e-02,
548,-4.000000e-02,
549,8.000000e-02,
550,8.000000e-02,
551,-4.000000e-02,
552,-2.000000e-02,
553,1.200000e-01,
554,-2.000000e-02,
555,1.200000e-01,
556,0.000000e+00,
557,1.600000e-01,
558,6.000000e-02,
559,2.000000e-01,
560,1.000000e-01,
561,2.800000e-01,
562,1.800000e-01,
563,3.400000e-01,
564,3.400000e-01,
565,2.200000e-01,
566,3.000000e-01,
567,1.200000e-01,
568,2.000000e-01,
569,0.000000e+00,
570,6.000000e-02,
571,-1.200000e-01,
572,-4.000000e-02,
573,-2.600000e-01,
574,-1.600000e-01,
575,-3.400000e-01,
576,-3.400000e-01,
577,-1.800000e-01,
578,-2.800000e-01,
579,-6.000000e-02,
580,-1.400000e-01,
581,0.000000e+00,
582,-1.000000e-01,
583,4.000000e-02,
584,-6.000000e-02,
585,6.000000e-02,
586,-6.000000e-02,
587,8.000000e-02,
588,8.000000e-02,
589,-4.000000e-02,
590,-4.000000e-02,
591,8.000000e-02,
592,-4.000000e-02,
593,8.000000e-02,
594,-4.000000e-02,
595,8.000000e-02,
596,-4.000000e-02,
597,1.000000e-01,
598,-6.000000e-02,
599,1.000000e-01,
600,8.000000e-02,
601,-4.000000e-02,
602,8.000000e-02,
603,-4.000000e-02,
604,-4.000000e-02,
605,1.000000e-01,
606,1.000000e-01,
607,-6.000000e-02,
608,-4.000000e-02,
609,1.000000e-01,
610,-4.000000e-02,
611,1.000000e-01,
612,8.000000e-02,
613,-6.000000e-02,
614,-4.000000e-02,
615,8.000000e-02,
616,-4.000000e-02,
617,1.000000e-01,
618,-4.000000e-02,
619,8.000000e-02,
620,-6.000000e-02,
621,8.000000e-02,
622,-4.000000e-02,
623,8.000000e-02,
624,-4.000000e-02,
625,1.000000e-01,
626,8.000000e-02,
627,-4.000000e-02,
628,-4.000000e-02,
629,1.000000e-01,
630,-4.000000e-02,
631,8.000000e-02,
632,-4.000000e-02,
633,8.000000e-02,
634,-4.000000e-02,
635,8.000000e-02,
636,-4.000000e-02,
637,1.000000e-01,
638,-6.000000e-02,
639,1.000000e-01,
640,8.000000e-02,
641,-6.000000e-02,
642,-4.000000e-02,
643,8.000000e-02,
644,-4.000000e-02,
645,8.000000e-02,
646,-4.000000e-02,
647,1.000000e-01,
648,-4.000000e-02,
649,8.000000e-02,
650,-4.000000e-02,
651,8.000000e-02,
652,-4.000000e-02,
653,6.000000e-02,
654,-4.000000e-02,
655,8.000000e-02,
656,8.000000e-02,
657,-4.000000e-02,
658,-4.000000e-02,
659,8.000000e-02,
660,8.000000e-02,
661,-4.000000e-02,
662,-4.000000e-02,
663,1.000000e-01,
664,-6.000000e-02,
665,8.000000e-02,
666,8.000000e-02,
667,-4.000000e-02,
668,1.000000e-01,
669,-2.000000e-02,
670,0.000000e+00,
671,1.200000e-01,
672,2.000000e-02,
673,1.600000e-01,
674,6.000000e-02,
675,2.400000e-01,
676,1.600000e-01,
677,3.600000e-01,
678,2.400000e-01,
679,3.600000e-01,
680,3.600000e-01,
681,1.600000e-01,
682,2.400000e-01,
683,2.000000e-02,
684,1.200000e-01,
685,-8.000000e-02,
686,2.000000e-02,
687,-1.800000e-01,
688,-1.000000e-01,
689,-2.800000e-01,
690,-3.000000e-01,
691,-1.800000e-01,
692,-2.800000e-01,
693,-1.200000e-01,
694,-2.000000e-01,
695,-6.000000e-02,
696,-1.400000e-01,
697,0.000000e+00,
698,-8.000000e-02,
699,4.000000e-02,
700,-8.000000e-02,
701,6.000000e-02,
702,-6.000000e-02,
703,8.000000e-02,
704,-4.000000e-02,
705,8.000000e-02,
706,-4.000000e-02,
707,8.000000e-02,
708,-4.000000e-02,
709,8.000000e-02,
710,-4.000000e-02,
711,8.000000e-02,
712,-4.000000e-02,
713,8.000000e-02,
714,8.000000e-02,
715,-4.000000e-02,
716,-4.000000e-02,
717,1.000000e-01,
718,-4.000000e-02,
719,1.000000e-01,
720,-6.000000e-02,
721,8.000000e-02,
722,-4.000000e-02,
723,8.000000e-02,
724,-4.000000e-02,
725,8.000000e-02,
726,-4.000000e-02,
727,8.000000e-02,
728,-4.000000e-02,
729,8.000000e-02,
730,8.000000e-02,
731,-4.000000e-02,
732,8.000000e-02,
733,-6.000000e-02,
734,-4.000000e-02,
735,8.000000e-02,
736,8.000000e-02,
737,-6.000000e-02,
738,-4.000000e-02,
739,1.000000e-01,
740,-4.000000e-02,
741,8.000000e-02,
742,-6.000000e-02,
743,1.000000e-01,
744,1.000000e-01,
745,-6.000000e-02,
746,8.000000e-02,
747,-4.000000e-02,
748,-4.000000e-02,
749,8.000000e-02,
750,-4.000000e-02,
751,8.000000e-02,
752,-4.000000e-02,
753,8.000000e-02,
754,-6.000000e-02,
755,8.000000e-02,
756,1.000000e-01,
757,-4.000000e-02,
758,-4.000000e-02,
759,1.000000e-01,
760,8.000000e-02,
761,-4.000000e-02,
762,-4.000000e-02,
763,8.000000e-02,
764,-4.000000e-02,
765,1.000000e-01,
766,-4.000000e-02,
767,8.000000e-02,
768,8.000000e-02,
769,-6.000000e-02,
770,8.000000e-02,
771,-6.000000e-02,
772,-6.000000e-02,
773,1.000000e-01,
774,-4.000000e-02,
775,1.000000e-01,
776,1.000000e-01,
777,-4.000000e-02,
778,8.000000e-02,
779,-6.000000e-02,
780,8.000000e-02,
781,-6.000000e-02,
782,1.000000e-01,
783,-4.000000e-02,
784,-2.000000e-02,
785,1.000000e-01,
786,-2.000000e-02,
787,1.200000e-01,
788,0.000000e+00,
789,1.400000e-01,
790,2.000000e-02,
791,1.800000e-01,
792,8.000000e-02,
793,2.400000e-01,
794,1.600000e-01,
795,3.400000e-01,
796,2.200000e-01,
797,3.400000e-01,
798,3.200000e-01,
799,1.600000e-01,
800,2.400000e-01,
801,4.000000e-02,
802,1.200000e-01,
803,-6.000000e-02,
804,2.000000e-02,
805,-2.000000e-01,
806,-1.000000e-01,
807,-3.000000e-01,
808,-2.200000e-01,
809,-3.200000e-01,
810,-3.000000e-01,
811,-1.200000e-01,
812,-2.200000e-01,
813,-2.000000e-02,
814,-1.200000e-01,
815,2.000000e-02,
816,-1.000000e-01,
817,4.000000e-02,
818,-8.000000e-02,
819,8.000000e-02,
820,-6.000000e-02,
821,8.000000e-02,
822,-6.000000e-02,
823,8.000000e-02,
824,-4.000000e-02,
825,8.000000e-02,
826,8.000000e-02,
827,-4.000000e-02,
828,-4.000000e-02,
829,6.000000e-02,
830,-6.000000e-02,
831,8.000000e-02,
832,8.000000e-02,
833,-6.000000e-02,
834,-4.000000e-02,
835,1.000000e-01,
836,-4.000000e-02,
837,8.000000e-02,
838,-4.000000e-02,
839,1.000000e-01,
840,-4.000000e-02,
841,1.000000e-01,
842,8.000000e-02,
843,-4.000000e-02,
844,1.000000e-01,
845,-6.000000e-02,
846,8.000000e-02,
847,-4.000000e-02,
848,6.000000e-02,
849,-6.000000e-02,
850,8.000000e-02,
851,-6.000000e-02,
852,1.000000e-01,
853,-6.000000e-02,
854,-4.000000e-02,
855,1.000000e-01,
856,-4.000000e-02,
857,8.000000e-02,
858,-4.000000e-02,
859,1.000000e-01,
860,-4.000000e-02,
861,1.000000e-01,
862,8.000000e-02,
863,-6.000000e-02,
864,8.000000e-02,
865,-4.000000e-02,
866,-4.000000e-02,
867,8.000000e-02,
868,1.000000e-01,
869,-6.000000e-02,
870,1.200000e-01,
871,-6.000000e-02,
872,-6.000000e-02,
873,1.200000e-01,
874,1.000000e-01,
875,-6.000000e-02,
876,-4.000000e-02,
877,1.000000e-01,
878,1.000000e-01,
879,-6.000000e-02,
880,-6.000000e-02,
881,1.000000e-01,
882,1.000000e-01,
883,-6.000000e-02,
884,-4.000000e-02,
885,1.200000e-01,
886,1.200000e-01,
887,-6.000000e-02,
888,-4.000000e-02,
889,1.000000e-01,
890,-6.000000e-02,
891,1.400000e-01,
892,-6.000000e-02,
893,1.000000e-01,
894,-4.000000e-02,
895,1.200000e-01,
896,-4.000000e-02,
897,1.200000e-01,
898,-4.000000e-02,
899,1.200000e-01,
900,-4.000000e-02,
901,1.200000e-01,
902,1.200000e-01,
903,-4.000000e-02,
904,0.000000e+00,
905,1.600000e-01,
906,2.000000e-02,
907,2.400000e-01,
908,1.000000e-01,
909,3.200000e-01,
910,2.000000e-01,
911,3.800000e-01,
912,3.400000e-01,
913,2.000000e-01,
914,3.200000e-01,
915,8.000000e-02,
916,1.800000e-01,
917,-6.000000e-02,
918,8.000000e-02,
919,-1.400000e-01,
920,-4.000000e-02,
921,-2.400000e-01,
922,-1.200000e-01,
923,-3.000000e-01,
924,-3.000000e-01,
925,-1.400000e-01,
926,-2.600000e-01,
927,-6.000000e-02,
928,-1.800000e-01,
929,-4.000000e-02,
930,-1.200000e-01,
931,4.000000e-02,
932,-8.000000e-02,
933,6.000000e-02,
934,-6.000000e-02,
935,6.000000e-02,
936,-6.000000e-02,
937,8.000000e-02,
938,-4.000000e-02,
939,6.000000e-02,
940,-6.000000e-02,
941,8.000000e-02,
942,-4.000000e-02,
943,8.000000e-02,
944,-6.000000e-02,
945,8.000000e-02,
946,8.000000e-02,
947,-4.000000e-02,
948,8.000000e-02,
949,-4.000000e-02,
950,-4.000000e-02,
951,1.000000e-01,
952,8.000000e-02,
953,-4.000000e-02,
954,1.000000e-01,
955,-4.000000e-02,
956,-4.000000e-02,
957,8.000000e-02,
958,-4.000000e-02,
959,8.000000e-02,
960,8.000000e-02,
961,-6.000000e-02,
962,-4.000000e-02,
963,1.000000e-01,
964,8.000000e-02,
965,-4.000000e-02,
966,-4.000000e-02,
967,1.000000e-01,
968,8.000000e-02,
969,-4.000000e-02,
970,-4.000000e-02,
971,1.000000e-01,
972,-4.000000e-02,
973,1.000000e-01,
974,-6.000000e-02,
975,8.000000e-02,
976,-4.000000e-02,
977,1.000000e-01,
978,-4.000000e-02,
979,1.000000e-01,
980,8.000000e-02,
981,-4.000000e-02,
982,-4.000000e-02,
983,8.000000e-02,
984,8.000000e-02,
985,-4.000000e-02,
986,-4.000000e-02,
987,1.000000e-01,
988,-4.000000e-02,
989,1.000000e-01,
990,8.000000e-02,
991,-6.000000e-02,
992,-6.000000e-02,
993,1.000000e-01,
994,-4.000000e-02,
995,1.000000e-01,
996,8.000000e-02,
997,-4.000000e-02,
998,-4.000000e-02,
999,1.000000e-01,
1000,-4.000000e-02,
1001,8.000000e-02,
1002,-4.000000e-02,
1003,8.000000e-02,
1004,1.000000e-01,
1005,-6.000000e-02,
1006,-4.000000e-02,
1007,1.000000e-01,
1008,-4.000000e-02,
1009,8.000000e-02,
1010,-4.000000e-02,
1011,1.000000e-01,
1012,-4.000000e-02,
1013,1.000000e-01,
1014,-4.000000e-02,
1015,8.000000e-02,
1016,-2.000000e-02,
1017,8.000000e-02,
1018,1.200000e-01,
1019,-4.000000e-02,
1020,-2.000000e-02,
1021,1.000000e-01,
1022,2.000000e-02,
1023,1.600000e-01,
1024,4.000000e-02,
1025,2.000000e-01,
1026,1.000000e-01,
1027,3.000000e-01,
1028,2.000000e-01,
1029,3.400000e-01,
1030,3.200000e-01,
1031,2.000000e-01,
1032,2.800000e-01,
1033,1.000000e-01,
1034,2.000000e-01,
1035,0.000000e+00,
1036,8.000000e-02,
1037,-1.000000e-01,
1038,-4.000000e-02,
1039,-2.400000e-01,
1040,-1.400000e-01,
1041,-3.200000e-01,
1042,-3.200000e-01,
1043,-1.600000e-01,
1044,-2.600000e-01,
1045,-8.000000e-02,
1046,-1.800000e-01,
1047,0.000000e+00,
1048,-1.200000e-01,
1049,4.000000e-02,
1050,-8.000000e-02,
1051,8.000000e-02,
1052,8.000000e-02,
1053,-6.000000e-02,
1054,-6.000000e-02,
1055,8.000000e-02,
1056,-4.000000e-02,
1057,8.000000e-02,
1058,-4.000000e-02,
1059,8.000000e-02,
1060,-4.000000e-02,
1061,1.000000e-01,
1062,-2.000000e-02,
1063,1.000000e-01,
1064,8.000000e-02,
1065,-4.000000e-02,
1066,8.000000e-02,
1067,-4.000000e-02,
1068,-4.000000e-02,
1069,1.000000e-01,
1070,-4.000000e-02,
1071,1.000000e-01,
1072,1.000000e-01,
1073,-4.000000e-02,
1074,8.000000e-02,
1075,-4.000000e-02,
1076,-4.000000e-02,
1077,1.000000e-01,
1078,-4.000000e-02,
1079,8.000000e-02,
