EMF Data/32cm/Newfile5.csv

X,CH1,Start,Increment,
Sequence,Volt,-3.480000e+00,5.000000e-03,
0,8.000000e-02,
1,-4.000000e-02,
2,8.000000e-02,
3,-4.000000e-02,
4,-4.000000e-02,
5,8.000000e-02,
6,-4.000000e-02,
7,8.000000e-02,
8,-4.000000e-02,
9,8.000000e-02,
10,-4.000000e-02,
11,8.000000e-02,
12,-4.000000e-02,
13,8.000000e-02,
14,-4.000000e-02,
15,1.000000e-01,
16,-4.000000e-02,
17,1.000000e-01,
18,-6.000000e-02,
19,8.000000e-02,
20,1.000000e-01,
21,-6.000000e-02,
22,-4.000000e-02,
23,8.000000e-02,
24,-4.000000e-02,
25,8.000000e-02,
26,-4.000000e-02,
27,6.000000e-02,
28,-4.000000e-02,
29,1.000000e-01,
30,-6.000000e-02,
31,1.000000e-01,
32,-4.000000e-02,
33,8.000000e-02,
34,-4.000000e-02,
35,8.000000e-02,
36,-4.000000e-02,
37,8.000000e-02,
38,-4.000000e-02,
39,8.000000e-02,
40,8.000000e-02,
41,-4.000000e-02,
42,-4.000000e-02,
43,8.000000e-02,
44,-4.000000e-02,
45,8.000000e-02,
46,-4.000000e-02,
47,8.000000e-02,
48,8.000000e-02,
49,-6.000000e-02,
50,-4.000000e-02,
51,8.000000e-02,
52,6.000000e-02,
53,-4.000000e-02,
54,-4.000000e-02,
55,8.000000e-02,
56,-4.000000e-02,
57,8.000000e-02,
58,1.000000e-01,
59,-4.000000e-02,
60,8.000000e-02,
61,-4.000000e-02,
62,-4.000000e-02,
63,8.000000e-02,
64,-4.000000e-02,
65,8.000000e-02,
66,-4.000000e-02,
67,8.000000e-02,
68,-4.000000e-02,
69,1.000000e-01,
70,8.000000e-02,
71,-4.000000e-02,
72,-4.000000e-02,
73,8.000000e-02,
74,-4.000000e-02,
75,1.000000e-01,
76,-2.000000e-02,
77,1.000000e-01,
78,0.000000e+00,
79,1.400000e-01,
80,8.000000e-02,
81,2.400000e-01,
82,2.000000e-01,
83,3.800000e-01,
84,4.200000e-01,
85,2.800000e-01,
86,3.800000e-01,
87,1.400000e-01,
88,2.000000e-01,
89,-2.000000e-02,
90,4.000000e-02,
91,-2.000000e-01,
92,-1.400000e-01,
93,-4.000000e-01,
94,-4.400000e-01,
95,-2.600000e-01,
96,-3.400000e-01,
97,-1.200000e-01,
98,-1.800000e-01,
99,-2.000000e-02,
100,-1.000000e-01,
101,4.000000e-02,
102,-6.000000e-02,
103,6.000000e-02,
104,6.000000e-02,
105,-6.000000e-02,
106,-4.000000e-02,
107,8.000000e-02,
108,8.000000e-02,
109,-4.000000e-02,
110,-4.000000e-02,
111,1.000000e-01,
112,8.000000e-02,
113,-6.000000e-02,
114,8.000000e-02,
115,-4.000000e-02,
116,8.000000e-02,
117,-4.000000e-02,
118,-4.000000e-02,
119,8.000000e-02,
120,-4.000000e-02,
121,8.000000e-02,
122,8.000000e-02,
123,-4.000000e-02,
124,8.000000e-02,
125,-4.000000e-02,
126,-4.000000e-02,
127,1.000000e-01,
128,-4.000000e-02,
129,8.000000e-02,
130,-4.000000e-02,
131,1.000000e-01,
132,8.000000e-02,
133,-4.000000e-02,
134,8.000000e-02,
135,-6.000000e-02,
136,-4.000000e-02,
137,1.000000e-01,
138,-4.000000e-02,
139,1.200000e-01,
140,-4.000000e-02,
141,8.000000e-02,
142,-4.000000e-02,
143,8.000000e-02,
144,-4.000000e-02,
145,8.000000e-02,
146,-4.000000e-02,
147,8.000000e-02,
148,-4.000000e-02,
149,8.000000e-02,
150,-4.000000e-02,
151,8.000000e-02,
152,-4.000000e-02,
153,8.000000e-02,
154,-4.000000e-02,
155,1.000000e-01,
156,-4.000000e-02,
157,8.000000e-02,
158,1.000000e-01,
159,-6.000000e-02,
160,-4.000000e-02,
161,8.000000e-02,
162,-4.000000e-02,
163,8.000000e-02,
164,-4.000000e-02,
165,1.000000e-01,
166,8.000000e-02,
167,-4.000000e-02,
168,-4.000000e-02,
169,8.000000e-02,
170,8.000000e-02,
171,-4.000000e-02,
172,-4.000000e-02,
173,8.000000e-02,
174,8.000000e-02,
175,-6.000000e-02,
176,-4.000000e-02,
177,8.000000e-02,
178,-4.000000e-02,
179,8.000000e-02,
180,-4.000000e-02,
181,8.000000e-02,
182,-4.000000e-02,
183,8.000000e-02,
184,-6.000000e-02,
185,8.000000e-02,
186,-4.000000e-02,
187,8.000000e-02,
188,1.000000e-01,
189,-4.000000e-02,
190,-4.000000e-02,
191,8.000000e-02,
192,-4.000000e-02,
193,8.000000e-02,
194,-4.000000e-02,
195,1.000000e-01,
196,1.000000e-01,
197,-4.000000e-02,
198,0.000000e+00,
199,1.400000e-01,
200,4.000000e-02,
201,2.200000e-01,
202,1.200000e-01,
203,3.600000e-01,
204,3.000000e-01,
205,4.400000e-01,
206,4.200000e-01,
207,1.800000e-01,
208,2.400000e-01,
209,0.000000e+00,
210,6.000000e-02,
211,-1.600000e-01,
212,-8.000000e-02,
213,-3.200000e-01,
214,-2.400000e-01,
215,-3.800000e-01,
216,-3.600000e-01,
217,-1.600000e-01,
218,-2.200000e-01,
219,-4.000000e-02,
220,-1.200000e-01,
221,2.000000e-02,
222,-8.000000e-02,
223,4.000000e-02,
224,-6.000000e-02,
225,8.000000e-02,
226,-6.000000e-02,
227,8.000000e-02,
228,-4.000000e-02,
229,8.000000e-02,
230,8.000000e-02,
231,-4.000000e-02,
232,8.000000e-02,
233,-4.000000e-02,
234,8.000000e-02,
235,-4.000000e-02,
236,8.000000e-02,
237,-4.000000e-02,
238,-4.000000e-02,
239,8.000000e-02,
240,-4.000000e-02,
241,8.000000e-02,
242,-4.000000e-02,
243,8.000000e-02,
244,-4.000000e-02,
245,8.000000e-02,
246,8.000000e-02,
247,-4.000000e-02,
248,-4.000000e-02,
249,8.000000e-02,
250,6.000000e-02,
251,-4.000000e-02,
252,-4.000000e-02,
253,8.000000e-02,
254,8.000000e-02,
255,-6.000000e-02,
256,8.000000e-02,
257,-4.000000e-02,
258,-4.000000e-02,
259,1.000000e-01,
260,-4.000000e-02,
261,8.000000e-02,
262,-4.000000e-02,
263,8.000000e-02,
264,8.000000e-02,
265,-6.000000e-02,
266,-4.000000e-02,
267,8.000000e-02,
268,-4.000000e-02,
269,8.000000e-02,
270,-4.000000e-02,
271,8.000000e-02,
272,-4.000000e-02,
273,8.000000e-02,
274,8.000000e-02,
275,-4.000000e-02,
276,-2.000000e-02,
277,8.000000e-02,
278,-4.000000e-02,
279,8.000000e-02,
280,8.000000e-02,
281,-4.000000e-02,
282,1.000000e-01,
283,-6.000000e-02,
284,1.000000e-01,
285,-4.000000e-02,
286,-4.000000e-02,
287,1.000000e-01,
288,-4.000000e-02,
289,8.000000e-02,
290,-4.000000e-02,
291,8.000000e-02,
292,-4.000000e-02,
293,8.000000e-02,
294,-4.000000e-02,
295,8.000000e-02,
296,-4.000000e-02,
297,1.000000e-01,
298,-6.000000e-02,
299,8.000000e-02,
300,-2.000000e-02,
301,1.000000e-01,
302,8.000000e-02,
303,-4.000000e-02,
304,-4.000000e-02,
305,8.000000e-02,
306,-4.000000e-02,
307,8.000000e-02,
308,-4.000000e-02,
309,8.000000e-02,
310,-4.000000e-02,
311,8.000000e-02,
312,-4.000000e-02,
313,8.000000e-02,
314,6.000000e-02,
315,-4.000000e-02,
316,-2.000000e-02,
317,1.000000e-01,
318,1.000000e-01,
319,-2.000000e-02,
320,0.000000e+00,
321,1.400000e-01,
322,4.000000e-02,
323,2.200000e-01,
324,1.400000e-01,
325,3.400000e-01,
326,2.800000e-01,
327,4.000000e-01,
328,3.800000e-01,
329,2.000000e-01,
330,2.800000e-01,
331,2.000000e-02,
332,1.200000e-01,
333,-1.200000e-01,
334,-6.000000e-02,
335,-3.200000e-01,
336,-2.400000e-01,
337,-4.000000e-01,
338,-3.800000e-01,
339,-2.000000e-01,
340,-2.400000e-01,
341,-6.000000e-02,
342,-1.400000e-01,
343,2.000000e-02,
344,-8.000000e-02,
345,6.000000e-02,
346,-6.000000e-02,
347,6.000000e-02,
348,-4.000000e-02,
349,8.000000e-02,
350,8.000000e-02,
351,-6.000000e-02,
352,1.200000e-01,
353,-4.000000e-02,
354,-4.000000e-02,
355,1.000000e-01,
356,1.000000e-01,
357,-4.000000e-02,
358,8.000000e-02,
359,-4.000000e-02,
360,8.000000e-02,
361,-4.000000e-02,
362,-4.000000e-02,
363,8.000000e-02,
364,8.000000e-02,
365,-4.000000e-02,
366,6.000000e-02,
367,-4.000000e-02,
368,8.000000e-02,
369,-4.000000e-02,
370,1.000000e-01,
371,-6.000000e-02,
372,8.000000e-02,
373,-4.000000e-02,
374,8.000000e-02,
375,-4.000000e-02,
376,-4.000000e-02,
377,8.000000e-02,
378,8.000000e-02,
379,-4.000000e-02,
380,-4.000000e-02,
381,1.000000e-01,
382,-4.000000e-02,
383,1.000000e-01,
384,-4.000000e-02,
385,1.000000e-01,
386,-4.000000e-02,
387,8.000000e-02,
388,-4.000000e-02,
389,1.000000e-01,
390,-4.000000e-02,
391,8.000000e-02,
392,8.000000e-02,
393,-4.000000e-02,
394,-4.000000e-02,
395,1.000000e-01,
396,8.000000e-02,
397,-4.000000e-02,
398,8.000000e-02,
399,-6.000000e-02,
400,-4.000000e-02,
401,8.000000e-02,
402,-4.000000e-02,
403,1.000000e-01,
404,-4.000000e-02,
405,8.000000e-02,
406,-6.000000e-02,
407,1.000000e-01,
408,-4.000000e-02,
409,1.000000e-01,
410,-4.000000e-02,
411,8.000000e-02,
412,-4.000000e-02,
413,8.000000e-02,
414,-4.000000e-02,
415,8.000000e-02,
416,8.000000e-02,
417,-4.000000e-02,
418,-4.000000e-02,
419,8.000000e-02,
420,-4.000000e-02,
421,8.000000e-02,
422,-4.000000e-02,
423,8.000000e-02,
424,8.000000e-02,
425,-6.000000e-02,
426,-4.000000e-02,
427,8.000000e-02,
428,-4.000000e-02,
429,8.000000e-02,
430,-4.000000e-02,
431,1.000000e-01,
432,-4.000000e-02,
433,8.000000e-02,
434,8.000000e-02,
435,-4.000000e-02,
436,1.000000e-01,
437,-4.000000e-02,
438,1.000000e-01,
439,-2.000000e-02,
440,0.000000e+00,
441,1.200000e-01,
442,4.000000e-02,
443,2.000000e-01,
444,1.200000e-01,
445,3.200000e-01,
446,2.600000e-01,
447,4.200000e-01,
448,4.400000e-01,
449,2.400000e-01,
450,3.000000e-01,
451,6.000000e-02,
452,1.200000e-01,
453,-1.000000e-01,
454,-2.000000e-02,
455,-2.400000e-01,
456,-1.600000e-01,
457,-3.600000e-01,
458,-3.800000e-01,
459,-2.000000e-01,
460,-3.000000e-01,
461,-1.000000e-01,
462,-1.800000e-01,
463,-2.000000e-02,
464,-1.000000e-01,
465,2.000000e-02,
466,4.000000e-02,
467,-6.000000e-02,
468,-6.000000e-02,
469,6.000000e-02,
470,-4.000000e-02,
471,8.000000e-02,
472,-4.000000e-02,
473,8.000000e-02,
474,1.000000e-01,
475,-4.000000e-02,
476,8.000000e-02,
477,-4.000000e-02,
478,-4.000000e-02,
479,8.000000e-02,
480,-4.000000e-02,
481,1.000000e-01,
482,-4.000000e-02,
483,1.000000e-01,
484,8.000000e-02,
485,-4.000000e-02,
486,1.000000e-01,
487,-4.000000e-02,
488,-4.000000e-02,
489,8.000000e-02,
490,8.000000e-02,
491,-4.000000e-02,
492,8.000000e-02,
493,-4.000000e-02,
494,-4.000000e-02,
495,8.000000e-02,
496,8.000000e-02,
497,-4.000000e-02,
498,-4.000000e-02,
499,1.000000e-01,
500,8.000000e-02,
501,-4.000000e-02,
502,8.000000e-02,
503,-4.000000e-02,
504,8.000000e-02,
505,-4.000000e-02,
506,8.000000e-02,
507,-4.000000e-02,
508,8.000000e-02,
509,-4.000000e-02,
510,-4.000000e-02,
511,8.000000e-02,
512,-4.000000e-02,
513,1.000000e-01,
514,-4.000000e-02,
515,8.000000e-02,
516,-4.000000e-02,
517,1.000000e-01,
518,-4.000000e-02,
519,8.000000e-02,
520,-4.000000e-02,
521,1.000000e-01,
522,-4.000000e-02,
523,8.000000e-02,
524,-2.000000e-02,
525,8.000000e-02,
526,-4.000000e-02,
527,8.000000e-02,
528,-4.000000e-02,
529,8.000000e-02,
530,1.000000e-01,
531,-6.000000e-02,
532,8.000000e-02,
533,-6.000000e-02,
534,-4.000000e-02,
535,1.000000e-01,
536,1.000000e-01,
537,-4.000000e-02,
538,-6.000000e-02,
539,8.000000e-02,
540,8.000000e-02,
541,-4.000000e-02,
542,8.000000e-02,
543,-4.000000e-02,
544,-4.000000e-02,
545,8.000000e-02,
546,-4.000000e-02,
547,8.000000e-02,
548,-4.000000e-02,
549,1.000000e-01,
550,-6.000000e-02,
551,8.000000e-02,
552,-4.000000e-02,
553,8.000000e-02,
554,1.000000e-01,
555,-4.000000e-02,
556,-4.000000e-02,
557,1.000000e-01,
558,8.000000e-02,
559,-4.000000e-02,
560,-2.000000e-02,
561,1.000000e-01,
562,0.000000e+00,
563,1.400000e-01,
564,4.000000e-02,
565,2.000000e-01,
566,1.200000e-01,
567,3.000000e-01,
568,2.400000e-01,
569,4.000000e-01,
570,3.800000e-01,
571,2.000000e-01,
572,3.000000e-01,
573,8.000000e-02,
574,1.600000e-01,
575,-6.000000e-02,
576,0.000000e+00,
577,-2.400000e-01,
578,-1.600000e-01,
579,-3.800000e-01,
580,-4.000000e-01,
581,-2.400000e-01,
582,-3.000000e-01,
583,-1.000000e-01,
584,-1.800000e-01,
585,0.000000e+00,
586,-1.000000e-01,
587,6.000000e-02,
588,-6.000000e-02,
589,8.000000e-02,
590,8.000000e-02,
591,-6.000000e-02,
592,6.000000e-02,
593,-4.000000e-02,
594,-4.000000e-02,
595,8.000000e-02,
596,8.000000e-02,
597,-4.000000e-02,
598,8.000000e-02,
599,-4.000000e-02,
600,8.000000e-02,
601,-4.000000e-02,
602,1.000000e-01,
603,-4.000000e-02,
604,-4.000000e-02,
605,1.000000e-01,
606,8.000000e-02,
607,-6.000000e-02,
608,8.000000e-02,
609,-4.000000e-02,
610,-4.000000e-02,
611,1.000000e-01,
612,-4.000000e-02,
613,8.000000e-02,
614,-4.000000e-02,
615,1.000000e-01,
616,-4.000000e-02,
617,8.000000e-02,
618,-4.000000e-02,
619,1.000000e-01,
620,-4.000000e-02,
621,8.000000e-02,
622,8.000000e-02,
623,-4.000000e-02,
624,8.000000e-02,
625,-4.000000e-02,
626,8.000000e-02,
627,-4.000000e-02,
628,-4.000000e-02,
629,8.000000e-02,
630,-4.000000e-02,
631,8.000000e-02,
632,-4.000000e-02,
633,8.000000e-02,
634,-6.000000e-02,
635,8.000000e-02,
636,1.000000e-01,
637,-4.000000e-02,
638,-4.000000e-02,
639,1.000000e-01,
640,6.000000e-02,
641,-4.000000e-02,
642,-6.000000e-02,
643,8.000000e-02,
644,-4.000000e-02,
645,8.000000e-02,
646,-4.000000e-02,
647,8.000000e-02,
648,6.000000e-02,
649,-4.000000e-02,
650,-4.000000e-02,
651,8.000000e-02,
652,-4.000000e-02,
653,8.000000e-02,
654,-4.000000e-02,
655,8.000000e-02,
656,-4.000000e-02,
657,8.000000e-02,
658,-4.000000e-02,
659,8.000000e-02,
660,-4.000000e-02,
661,8.000000e-02,
662,8.000000e-02,
663,-4.000000e-02,
664,-4.000000e-02,
665,8.000000e-02,
666,-4.000000e-02,
667,1.000000e-01,
668,-4.000000e-02,
669,8.000000e-02,
670,-6.000000e-02,
671,8.000000e-02,
672,-4.000000e-02,
673,8.000000e-02,
674,8.000000e-02,
675,-4.000000e-02,
676,-4.000000e-02,
677,8.000000e-02,
678,-2.000000e-02,
679,1.000000e-01,
680,1.200000e-01,
681,-2.000000e-02,
682,-2.000000e-02,
683,1.200000e-01,
684,6.000000e-02,
685,1.800000e-01,
686,1.200000e-01,
687,3.200000e-01,
688,2.600000e-01,
689,4.200000e-01,
690,4.000000e-01,
691,2.400000e-01,
692,3.000000e-01,
693,4.000000e-02,
694,1.400000e-01,
695,-6.000000e-02,
696,0.000000e+00,
697,-2.200000e-01,
698,-1.400000e-01,
699,-3.400000e-01,
700,-3.600000e-01,
701,-2.200000e-01,
702,-3.000000e-01,
703,-1.000000e-01,
704,-2.000000e-01,
705,-2.000000e-02,
706,-1.000000e-01,
707,2.000000e-02,
708,-6.000000e-02,
709,6.000000e-02,
710,-6.000000e-02,
711,8.000000e-02,
712,-6.000000e-02,
713,8.000000e-02,
714,-4.000000e-02,
715,1.000000e-01,
716,-4.000000e-02,
717,1.000000e-01,
718,8.000000e-02,
719,-6.000000e-02,
720,-4.000000e-02,
721,8.000000e-02,
722,-4.000000e-02,
723,8.000000e-02,
724,-4.000000e-02,
725,1.000000e-01,
726,-4.000000e-02,
727,8.000000e-02,
728,8.000000e-02,
729,-4.000000e-02,
730,-4.000000e-02,
731,1.000000e-01,
732,8.000000e-02,
733,-4.000000e-02,
734,8.000000e-02,
735,-6.000000e-02,
736,8.000000e-02,
737,-4.000000e-02,
738,-6.000000e-02,
739,8.000000e-02,
740,8.000000e-02,
741,-4.000000e-02,
742,-4.000000e-02,
743,8.000000e-02,
744,8.000000e-02,
745,-4.000000e-02,
746,-4.000000e-02,
747,8.000000e-02,
748,8.000000e-02,
749,-4.000000e-02,
750,1.000000e-01,
751,-6.000000e-02,
752,-4.000000e-02,
753,8.000000e-02,
754,-4.000000e-02,
755,8.000000e-02,
756,-4.000000e-02,
757,8.000000e-02,
758,-4.000000e-02,
759,8.000000e-02,
760,8.000000e-02,
761,-4.000000e-02,
762,8.000000e-02,
763,-4.000000e-02,
764,-4.000000e-02,
765,8.000000e-02,
766,-4.000000e-02,
767,8.000000e-02,
768,-4.000000e-02,
769,1.000000e-01,
770,-4.000000e-02,
771,8.000000e-02,
772,8.000000e-02,
773,-4.000000e-02,
774,-4.000000e-02,
775,8.000000e-02,
776,8.000000e-02,
777,-4.000000e-02,
778,-4.000000e-02,
779,8.000000e-02,
780,1.000000e-01,
781,-4.000000e-02,
782,-4.000000e-02,
783,8.000000e-02,
784,-4.000000e-02,
785,8.000000e-02,
786,8.000000e-02,
787,-4.000000e-02,
788,-4.000000e-02,
789,8.000000e-02,
790,-4.000000e-02,
791,1.000000e-01,
792,-4.000000e-02,
793,8.000000e-02,
794,8.000000e-02,
795,-4.000000e-02,
796,8.000000e-02,
797,-4.000000e-02,
798,8.000000e-02,
799,-4.000000e-02,
800,-4.000000e-02,
801,1.000000e-01,
802,-2.000000e-02,
803,1.000000e-01,
804,0.000000e+00,
805,1.400000e-01,
806,4.000000e-02,
807,2.000000e-01,
808,1.200000e-01,
809,3.200000e-01,
810,2.400000e-01,
811,3.800000e-01,
812,3.800000e-01,
813,2.200000e-01,
814,2.800000e-01,
815,8.000000e-02,
816,1.400000e-01,
817,-6.000000e-02,
818,0.000000e+00,
819,-2.000000e-01,
820,-1.400000e-01,
821,-3.400000e-01,
822,-3.800000e-01,
823,-2.400000e-01,
824,-3.000000e-01,
825,-1.200000e-01,
826,-1.800000e-01,
827,-2.000000e-02,
828,-1.200000e-01,
829,0.000000e+00,
830,-8.000000e-02,
831,6.000000e-02,
832,-6.000000e-02,
833,8.000000e-02,
834,8.000000e-02,
835,-6.000000e-02,
836,-4.000000e-02,
837,8.000000e-02,
838,-4.000000e-02,
839,1.000000e-01,
840,-4.000000e-02,
841,8.000000e-02,
842,8.000000e-02,
843,-4.000000e-02,
844,8.000000e-02,
845,-6.000000e-02,
846,-4.000000e-02,
847,8.000000e-02,
848,-4.000000e-02,
849,8.000000e-02,
850,-4.000000e-02,
851,8.000000e-02,
852,-4.000000e-02,
853,8.000000e-02,
854,-6.000000e-02,
855,1.000000e-01,
856,-4.000000e-02,
857,8.000000e-02,
858,-4.000000e-02,
859,1.000000e-01,
860,-4.000000e-02,
861,8.000000e-02,
862,1.000000e-01,
863,-4.000000e-02,
864,-4.000000e-02,
865,1.000000e-01,
866,-4.000000e-02,
867,8.000000e-02,
868,1.000000e-01,
869,-4.000000e-02,
870,6.000000e-02,
871,-4.000000e-02,
872,-4.000000e-02,
873,8.000000e-02,
874,-4.000000e-02,
875,8.000000e-02,
876,1.000000e-01,
877,-6.000000e-02,
878,1.000000e-01,
879,-6.000000e-02,
880,8.000000e-02,
881,-4.000000e-02,
882,8.000000e-02,
883,-6.000000e-02,
884,-4.000000e-02,
885,8.000000e-02,
886,-4.000000e-02,
887,1.000000e-01,
888,-4.000000e-02,
889,1.000000e-01,
890,-4.000000e-02,
891,8.000000e-02,
892,8.000000e-02,
893,-6.000000e-02,
894,8.000000e-02,
895,-4.000000e-02,
896,-4.000000e-02,
897,1.000000e-01,
898,8.000000e-02,
899,-4.000000e-02,
900,1.000000e-01,
901,-6.000000e-02,
902,-4.000000e-02,
903,8.000000e-02,
904,-4.000000e-02,
905,8.000000e-02,
906,-4.000000e-02,
907,8.000000e-02,
908,-4.000000e-02,
909,8.000000e-02,
910,-4.000000e-02,
911,8.000000e-02,
912,8.000000e-02,
913,-4.000000e-02,
914,8.000000e-02,
915,-4.000000e-02,
916,-4.000000e-02,
917,1.000000e-01,
918,-4.000000e-02,
919,1.000000e-01,
920,-4.000000e-02,
921,1.000000e-01,
922,-2.000000e-02,
923,1.000000e-01,
924,0.000000e+00,
925,1.200000e-01,
926,6.000000e-02,
927,2.000000e-01,
928,1.200000e-01,
929,3.000000e-01,
930,2.400000e-01,
931,4.000000e-01,
932,4.000000e-01,
933,2.200000e-01,
934,3.000000e-01,
935,8.000000e-02,
936,1.600000e-01,
937,-6.000000e-02,
938,0.000000e+00,
939,-1.800000e-01,
940,-1.200000e-01,
941,-3.000000e-01,
942,-2.200000e-01,
943,-3.400000e-01,
944,-3.000000e-01,
945,-1.400000e-01,
946,-2.200000e-01,
947,-4.000000e-02,
948,-1.200000e-01,
949,2.000000e-02,
950,-8.000000e-02,
951,4.000000e-02,
952,-8.000000e-02,
953,8.000000e-02,
954,-6.000000e-02,
955,8.000000e-02,
956,-4.000000e-02,
957,8.000000e-02,
958,-4.000000e-02,
959,8.000000e-02,
960,8.000000e-02,
961,-4.000000e-02,
962,8.000000e-02,
963,-4.000000e-02,
964,-4.000000e-02,
965,8.000000e-02,
966,-4.000000e-02,
967,8.000000e-02,
968,8.000000e-02,
969,-4.000000e-02,
970,-4.000000e-02,
971,8.000000e-02,
972,-4.000000e-02,
973,8.000000e-02,
974,-4.000000e-02,
975,8.000000e-02,
976,8.000000e-02,
977,-4.000000e-02,
978,-4.000000e-02,
979,1.000000e-01,
980,-4.000000e-02,
981,1.000000e-01,
982,8.000000e-02,
983,-4.000000e-02,
984,-4.000000e-02,
985,1.000000e-01,
986,-4.000000e-02,
987,1.000000e-01,
988,8.000000e-02,
989,-4.000000e-02,
990,8.000000e-02,
991,-4.000000e-02,
992,8.000000e-02,
993,-4.000000e-02,
994,-4.000000e-02,
995,6.000000e-02,
996,-4.000000e-02,
997,8.000000e-02,
998,-4.000000e-02,
999,1.000000e-01,
1000,8.000000e-02,
1001,-4.000000e-02,
1002,8.000000e-02,
1003,-4.000000e-02,
1004,-4.000000e-02,
1005,8.000000e-02,
1006,-4.000000e-02,
1007,8.000000e-02,
1008,-4.000000e-02,
1009,1.000000e-01,
1010,8.000000e-02,
1011,-6.000000e-02,
1012,-4.000000e-02,
1013,8.000000e-02,
1014,8.000000e-02,
1015,-4.000000e-02,
1016,-4.000000e-02,
1017,8.000000e-02,
1018,-4.000000e-02,
1019,8.000000e-02,
1020,8.000000e-02,
1021,-4.000000e-02,
1022,-4.000000e-02,
1023,8.000000e-02,
1024,-6.000000e-02,
1025,8.000000e-02,
1026,8.000000e-02,
1027,-4.000000e-02,
1028,8.000000e-02,
1029,-4.000000e-02,
1030,8.000000e-02,
1031,-4.000000e-02,
1032,-4.000000e-02,
1033,8.000000e-02,
1034,-6.000000e-02,
1035,8.000000e-02,
1036,8.000000e-02,
1037,-4.000000e-02,
1038,8.000000e-02,
1039,-4.000000e-02,
1040,-2.000000e-02,
1041,1.000000e-01,
1042,-2.000000e-02,
1043,8.000000e-02,
1044,-2.000000e-02,
1045,1.200000e-01,
1046,2.000000e-02,
1047,1.600000e-01,
1048,6.000000e-02,
1049,2.200000e-01,
1050,1.400000e-01,
1051,3.200000e-01,
1052,2.600000e-01,
1053,3.800000e-01,
1054,3.600000e-01,
1055,2.000000e-01,
1056,2.600000e-01,
1057,8.000000e-02,
1058,1.400000e-01,
1059,-6.000000e-02,
1060,2.000000e-02,
1061,-2.000000e-01,
1062,-1.200000e-01,
1063,-3.400000e-01,
1064,-3.600000e-01,
1065,-2.400000e-01,
1066,-3.200000e-01,
1067,-1.200000e-01,
1068,-1.800000e-01,
1069,-2.000000e-02,
1070,-1.200000e-01,
1071,2.000000e-02,
1072,-6.000000e-02,
1073,6.000000e-02,
1074,-6.000000e-02,
1075,8.000000e-02,
1076,-4.000000e-02,
1077,8.000000e-02,
1078,-4.000000e-02,
1079,8.000000e-02,
